Advanced-Microelectronics-Lab-main/Lab05/FIFO.vcd
$date
	Sun Apr 19 23:38:28 2026
$end
$version
	QuestaSim Version 2021.1
$end
$timescale
	1ns
$end

$scope module top $end

$scope module fifo $end

$scope module c_ptr $end
$var wire 1 ! wrt_ptr_unsyn [4] $end
$var wire 1 " wrt_ptr_unsyn [3] $end
$var wire 1 # wrt_ptr_unsyn [2] $end
$var wire 1 $ wrt_ptr_unsyn [1] $end
$var wire 1 % wrt_ptr_unsyn [0] $end
$var wire 1 & wrt_ptr_2ff_syn [4] $end
$var wire 1 ' wrt_ptr_2ff_syn [3] $end
$var wire 1 ( wrt_ptr_2ff_syn [2] $end
$var wire 1 ) wrt_ptr_2ff_syn [1] $end
$var wire 1 * wrt_ptr_2ff_syn [0] $end
$var wire 1 + rd_ptr_unsyn [4] $end
$var wire 1 , rd_ptr_unsyn [3] $end
$var wire 1 - rd_ptr_unsyn [2] $end
$var wire 1 . rd_ptr_unsyn [1] $end
$var wire 1 / rd_ptr_unsyn [0] $end
$var wire 1 0 rd_ptr_2ff_syn [4] $end
$var wire 1 1 rd_ptr_2ff_syn [3] $end
$var wire 1 2 rd_ptr_2ff_syn [2] $end
$var wire 1 3 rd_ptr_2ff_syn [1] $end
$var wire 1 4 rd_ptr_2ff_syn [0] $end
$var wire 1 5 empty $end
$var wire 1 6 full $end
$upscope $end

$scope module ff_s1 $end
$var wire 1 7 clk $end
$var wire 1 8 rst_n $end
$var wire 1 ! unsync_data [4] $end
$var wire 1 " unsync_data [3] $end
$var wire 1 # unsync_data [2] $end
$var wire 1 $ unsync_data [1] $end
$var wire 1 % unsync_data [0] $end
$var reg 5 9 sync_data [4:0] $end
$var reg 5 : sync1 [4:0] $end
$upscope $end

$scope module ff_s2 $end
$var wire 1 ; clk $end
$var wire 1 < rst_n $end
$var wire 1 + unsync_data [4] $end
$var wire 1 , unsync_data [3] $end
$var wire 1 - unsync_data [2] $end
$var wire 1 . unsync_data [1] $end
$var wire 1 / unsync_data [0] $end
$var reg 5 = sync_data [4:0] $end
$var reg 5 > sync1 [4:0] $end
$upscope $end

$scope module rd_p $end
$var wire 1 7 clk $end
$var wire 1 8 rst $end
$var wire 1 ? rd_en $end
$var wire 1 5 empty $end
$var wire 1 @ rd_empty $end
$var reg 5 A rd_ptr [4:0] $end
$var wire 1 + rd_ptr_gray [4] $end
$var wire 1 , rd_ptr_gray [3] $end
$var wire 1 - rd_ptr_gray [2] $end
$var wire 1 . rd_ptr_gray [1] $end
$var wire 1 / rd_ptr_gray [0] $end
$upscope $end

$scope module wr_p $end
$var wire 1 ; clk $end
$var wire 1 < rst_n $end
$var wire 1 B w_en $end
$var wire 1 6 full $end
$var reg 5 C wrt_ptr [4:0] $end
$var wire 1 ! wrt_ptr_gray [4] $end
$var wire 1 " wrt_ptr_gray [3] $end
$var wire 1 # wrt_ptr_gray [2] $end
$var wire 1 $ wrt_ptr_gray [1] $end
$var wire 1 % wrt_ptr_gray [0] $end
$var wire 1 D w_full $end
$upscope $end

$scope module mem $end
$var wire 1 ; wr_clk $end
$var wire 1 E W_DATA [7] $end
$var wire 1 F W_DATA [6] $end
$var wire 1 G W_DATA [5] $end
$var wire 1 H W_DATA [4] $end
$var wire 1 I W_DATA [3] $end
$var wire 1 J W_DATA [2] $end
$var wire 1 K W_DATA [1] $end
$var wire 1 L W_DATA [0] $end
$var wire 1 B wr_en $end
$var wire 1 6 full $end
$var wire 1 M wrt_ptr [4] $end
$var wire 1 N wrt_ptr [3] $end
$var wire 1 O wrt_ptr [2] $end
$var wire 1 P wrt_ptr [1] $end
$var wire 1 Q wrt_ptr [0] $end
$var wire 1 R rd_ptr [4] $end
$var wire 1 S rd_ptr [3] $end
$var wire 1 T rd_ptr [2] $end
$var wire 1 U rd_ptr [1] $end
$var wire 1 V rd_ptr [0] $end
$var wire 1 W RD_DATA [7] $end
$var wire 1 X RD_DATA [6] $end
$var wire 1 Y RD_DATA [5] $end
$var wire 1 Z RD_DATA [4] $end
$var wire 1 [ RD_DATA [3] $end
$var wire 1 \ RD_DATA [2] $end
$var wire 1 ] RD_DATA [1] $end
$var wire 1 ^ RD_DATA [0] $end
$upscope $end
$upscope $end
$upscope $end
$enddefinitions $end
#0
$dumpvars
b0 C
b0 A
b0 9
b0 :
b0 =
b0 >
06
0Q
0P
0O
0N
0M
0%
0$
0#
0"
0!
0*
0)
0(
0'
0&
15
0V
0U
0T
0S
0R
0/
0.
0-
0,
0+
04
03
02
01
00
x?
08
07
xL
xK
xJ
xI
xH
xG
xF
xE
xB
0<
0;
0D
x^
x]
x\
x[
xZ
xY
xX
xW
1@
$end
#5
1;
1L
1K
1J
0I
0H
1G
0F
1E
1B
0?
18
1<
#10
17
#15
0;
#20
07
#25
1;
b1 C
1^
1]
1\
0[
0Z
1Y
0X
1W
1Q
1%
1I
0E
#30
17
b1 :
#35
0;
#40
07
#45
1;
b10 C
0Q
1P
1$
0L
0K
0J
0I
0G
1F
#50
17
b11 :
b1 9
1*
05
0@
#55
0;
#60
07
#65
1;
b11 C
1Q
0%
1I
1H
1E
#70
17
b10 :
b11 9
1)
#75
0;
#80
07
#85
1;
b100 C
0Q
0P
1O
1#
1L
0I
0H
#90
17
b110 :
b10 9
0*
#95
0;
#100
07
#105
1;
b101 C
1Q
1%
0L
1J
1I
1H
0F
0E
#110
17
b111 :
b110 9
1(
#115
0;
#120
07
#125
1;
b110 C
0Q
1P
0$
1L
0J
0I
1G
#130
17
b101 :
b111 9
1*
#135
0;
#140
07
#145
1;
b111 C
1Q
0%
0H
0G
1E
#150
17
b100 :
b101 9
0)
#155
0;
#160
07
#165
1;
b1000 C
0Q
0P
0O
1N
1"
1I
1H
0E
#170
17
b1100 :
b100 9
0*
#175
0;
#180
07
#185
1;
b1001 C
1Q
1%
1J
0I
0H
1F
#190
17
b1101 :
b1100 9
1'
#195
0;
#200
07
#205
1;
b1010 C
0Q
1P
1$
1H
0F
#210
17
b1111 :
b1101 9
1*
#215
0;
#220
07
#225
1;
b1011 C
1Q
0%
1K
0J
1I
1G
#230
17
b1110 :
b1111 9
1)
#235
0;
#240
07
#245
1;
b1100 C
0Q
0P
1O
0#
1J
0I
0G
1E
#250
17
b1010 :
b1110 9
0*
#255
0;
#260
07
#265
1;
b1101 C
1Q
1%
0K
0J
1F
0E
#270
17
b1011 :
b1010 9
0(
#275
0;
#280
07
#285
1;
b1110 C
0Q
1P
0$
0L
1K
1I
0F
#290
17
b1001 :
b1011 9
1*
#295
0;
#300
07
#305
1;
b1111 C
1Q
0%
1L
0K
0I
1G
1E
#310
17
b1000 :
b1001 9
0)
#315
0;
#320
07
#325
1;
b10000 C
0Q
0P
0O
0N
1M
1!
16
1D
0L
0H
0G
0E
0B
1?
#330
17
b1 A
b11000 :
b1000 9
0*
1V
1/
1[
0W
#335
0;
#340
07
#345
1;
b1 >
#350
17
b11000 9
b10 A
0V
1U
1.
1&
0^
0]
0\
0[
0Y
1X
#355
0;
#360
07
#365
1;
b11 >
b1 =
14
06
0D
#370
17
b11 A
1V
0/
1[
1Z
1W
#375
0;
#380
07
#385
1;
b10 >
b11 =
13
#390
17
b100 A
0V
0U
1T
1-
1^
0[
0Z
#395
0;
#400
07
#405
1;
b110 >
b10 =
04
#410
17
b101 A
1V
1/
0^
1\
1[
1Z
0X
0W
#415
0;
#420
07
#425
1;
b111 >
b110 =
12
#430
17
b110 A
0V
1U
0.
1^
0\
0[
1Y
#435
0;
#440
07
#445
1;
b101 >
b111 =
14
#450
17
b111 A
1V
0/
0Z
0Y
1W
#455
0;
#460
07
#465
1;
b100 >
b101 =
03
#470
17
b1000 A
0V
0U
0T
1S
1,
1[
1Z
0W
#475
0;
#480
07
#485
1;
b1100 >
b100 =
04
#490
17
b1001 A
1V
1/
1\
0[
0Z
1X
#495
0;
#500
07
#505
1;
b1101 >
b1100 =
11
#510
17
b1010 A
0V
1U
1.
1Z
0X
#515
0;
#520
07
#525
1;
b1111 >
b1101 =
14
#530
17
b1011 A
1V
0/
1]
0\
1[
1Y
#535
0;
#540
07
#545
1;
b1110 >
b1111 =
13
#550
17
b1100 A
0V
0U
1T
0-
1\
0[
0Y
1W
#555
0;
#560
07
#565
1;
b1010 >
b1110 =
04
#570
17
b1101 A
1V
1/
0]
0\
1X
0W
#575
0;
#580
07
#585
1;
b1011 >
b1010 =
02
#590
17
b1110 A
0V
1U
0.
0^
1]
1[
0X
#595
0;
#600
07
#605
1;
b1001 >
b1011 =
14
#610
17
b1111 A
1V
0/
1^
0]
0[
1Y
1W
#615
0;
#620
07
#625
1;
b1000 >
b1001 =
03
#630
17
b10000 A
0V
0U
0T
0S
1R
1+
1]
1\
0Z
15
1@
#635
0;
#640
07
#645
1;
b11000 >
b1000 =
04
